{
	"name": "テーブルマーク_梅肉と大葉のアジフライ",
	"number": 112,
	"category": "主菜",
	"color": "その他",
	"color_code": "#ffcc66",
	"calorie": 334,
	"material": [
		{
			"name": "テーブルマーク_梅肉と大葉のアジフライ",
			"volume": "0.2袋"
		}
	],
	"genre": ["魚"]
}
