{
	"name": "マルハニチロ_ソースとんかつ",
	"number": 2686648,
	"category": "主菜",
	"color": "その他",
	"color_code": "#ffcc66",
	"calorie": 120,
	"material": [
		{
			"name": "マルハニチロ_ソースとんかつ",
			"volume": "0.3袋"
		}
	],
	"genre": ["豚肉", "冷凍食品", "揚げ物"]
}
